^C:\USERS\IM073096\DESKTOP\CURSURI\C++REPO\BASECONVERTER\BASECONVERTER\BASECONVERTERNUMBERS.CPP
/c /ZI /JMC /nologo /W3 /WX- /diagnostics:column /sdl /Od /Oy- /D _MBCS /Gm- /EHsc /RTC1 /MDd /GS /fp:precise /permissive- /Zc:wchar_t /Zc:forScope /Zc:inline /Fo"DEBUG\\" /Fd"DEBUG\VC142.PDB" /Gd /TP /analyze- /FC C:\USERS\IM073096\DESKTOP\CURSURI\C++REPO\BASECONVERTER\BASECONVERTER\BASECONVERTERNUMBERS.CPP
^C:\USERS\IM073096\DESKTOP\CURSURI\C++REPO\BASECONVERTER\BASECONVERTER\SOURCE.CPP
/c /ZI /JMC /nologo /W3 /WX- /diagnostics:column /sdl /Od /Oy- /D _MBCS /Gm- /EHsc /RTC1 /MDd /GS /fp:precise /permissive- /Zc:wchar_t /Zc:forScope /Zc:inline /Fo"DEBUG\\" /Fd"DEBUG\VC142.PDB" /Gd /TP /analyze- /FC C:\USERS\IM073096\DESKTOP\CURSURI\C++REPO\BASECONVERTER\BASECONVERTER\SOURCE.CPP
